{"count":22,"next":"https://pokeapi.co/api/v2/super-contest-effect?offset=20&limit=2","previous":null,"results":[{"url":"https://pokeapi.co/api/v2/super-contest-effect/1/"},{"url":"https://pokeapi.co/api/v2/super-contest-effect/2/"},{"url":"https://pokeapi.co/api/v2/super-contest-effect/4/"},{"url":"https://pokeapi.co/api/v2/super-contest-effect/5/"},{"url":"https://pokeapi.co/api/v2/super-contest-effect/6/"},{"url":"https://pokeapi.co/api/v2/super-contest-effect/7/"},{"url":"https://pokeapi.co/api/v2/super-contest-effect/8/"},{"url":"https://pokeapi.co/api/v2/super-contest-effect/9/"},{"url":"https://pokeapi.co/api/v2/super-contest-effect/10/"},{"url":"https://pokeapi.co/api/v2/super-contest-effect/11/"},{"url":"https://pokeapi.co/api/v2/super-contest-effect/12/"},{"url":"https://pokeapi.co/api/v2/super-contest-effect/13/"},{"url":"https://pokeapi.co/api/v2/super-contest-effect/14/"},{"url":"https://pokeapi.co/api/v2/super-contest-effect/15/"},{"url":"https://pokeapi.co/api/v2/super-contest-effect/16/"},{"url":"https://pokeapi.co/api/v2/super-contest-effect/17/"},{"url":"https://pokeapi.co/api/v2/super-contest-effect/18/"},{"url":"https://pokeapi.co/api/v2/super-contest-effect/19/"},{"url":"https://pokeapi.co/api/v2/super-contest-effect/20/"},{"url":"https://pokeapi.co/api/v2/super-contest-effect/21/"}]}